%YAML 1.1
%TAG !u! tag:unity3d.com,2011:
--- !u!114 &11400000
MonoBehaviour:
  m_ObjectHideFlags: 0
  m_CorrespondingSourceObject: {fileID: 0}
  m_PrefabInstance: {fileID: 0}
  m_PrefabAsset: {fileID: 0}
  m_GameObject: {fileID: 0}
  m_Enabled: 1
  m_EditorHideFlags: 0
  m_Script: {fileID: 11500000, guid: c667a60dc4505fe4098979217e1d1348, type: 3}
  m_Name: Hat
  m_EditorClassIdentifier: 
  itemID: 4a901d89-3e1f-44e8-9638-45129ec737a5
  displayName: 
  description: 
  icon: {fileID: 0}
  stackable: 0
